#
## Alias OBJ Material File
# Exported from SketchUp, (c) 2000-2012 Trimble Navigation Limited

newmtl Color_F02
Ka 0.000000 0.000000 0.000000
Kd 0.600000 1.000000 0.196078
Ks 0.330000 0.330000 0.330000

newmtl Color_I01
Ka 0.000000 0.000000 0.000000
Kd 0.000000 0.000000 1.000000
Ks 0.330000 0.330000 0.330000

newmtl Color_A01
Ka 0.000000 0.000000 0.000000
Kd 1.000000 0.000000 0.000000
Ks 0.330000 0.330000 0.330000

